produce,banana,0.62,04/29/2022
produce,banana,0.62,04/29/2022
produce,banana,0.62,04/29/2022
produce,banana,0.62,04/29/2022
produce,banana,0.62,04/29/2022
produce,banana,0.62,04/29/2022
produce,banana,0.62,04/29/2022
produce,banana,0.62,04/29/2022
produce,carrot,0.62,04/29/2022
produce,carrot,0.62,04/29/2022
produce,carrot,0.62,04/29/2022
produce,carrot,0.62,04/29/2022
produce,carrot,0.62,04/29/2022
produce,carrot,0.62,04/29/2022
produce,apple,0.5,04/29/2022
produce,apple,0.5,04/29/2022
produce,apple,0.5,04/29/2022
produce,apple,0.5,04/29/2022
produce,avocado,1.5,04/29/2022
produce,avocado,1.5,04/29/2022
produce,avocado,1.5,04/29/2022
produce,avocado,1.5,04/29/2022
produce,bread,3.5,04/29/2022
produce,bread,3.5,04/29/2022
produce,bread,3.5,04/29/2022
produce,bread,3.5,04/29/2022
produce,bag of chips,0.99,04/29/2022
produce,bag of chips,0.99,04/29/2022
produce,bag of chips,0.99,04/29/2022
produce,bag of chips,0.99,04/29/2022
shelved,pencil,1.29,N/A
shelved,pencil,1.29,N/A
shelved,pencil,1.29,N/A
shelved,pen,1.79,N/A
shelved,pen,1.79,N/A
shelved,pen,1.79,N/A
shelved,pen,1.79,N/A
shelved,pad of paper,3,N/A
shelved,pad of paper,3,N/A
shelved,pad of paper,3,N/A
produce,bottle of water,1,04/29/2023
produce,bottle of water,1,04/29/2023
produce,bottle of water,1,04/29/2023
produce,bottle of water,1,04/29/2023
produce,bottle of juice,1.19,04/29/2022
produce,bottle of juice,1.19,04/29/2022
produce,bottle of juice,1.19,04/29/2022
produce,bottle of juice,1.19,04/29/2022
produce,bottle of juice,1.19,04/29/2022
restricted,wine,12.99,21
restricted,wine,12.99,21
restricted,wine,12.99,21
restricted,beer,10.99,21
restricted,beer,10.99,21
restricted,beer,10.99,21
restricted,cold meds,24.99,18
restricted,cold meds,24.99,18